…
``` r
# Finding 1 (Season): It appears that fall has the lowest arrival delays while summer has the worst. Spring and winter are fairly equal in arrival delay times. However, the spread between these delays become smaller the earlier in the day the flight is.
season = flights %>% filter(!is.na(arr_delay)) %>% mutate(time_hour = substr(as.character(time_hour), 12, 20), season = case_when((month < 3) | (month > 11) ~ "Winter", (month >= 3) & (month < 6) ~ "Spring", (month >= 6) & (month < 9) ~ "Summer", (month >= 9) & (month < 12) ~ "Fall")) %>% group_by(time_hour, season) %>% summarise(mean_arr_delay = mean(arr_delay), n = n()) %>% arrange(mean_arr_delay, decreasing = F)
```

    ## `summarise()` has grouped output by 'time_hour'. You can override using the
    ## `.groups` argument.

``` r
season
```

    ## # A tibble: 76 × 4
    ## # Groups:   time_hour [19]
    ##    time_hour season mean_arr_delay     n
    ##    <chr>     <chr>           <dbl> <int>
    ##  1 05:00:00  Fall           -10.7    454
    ##  2 07:00:00  Fall            -8.61  5715
    ##  3 09:00:00  Fall            -7.88  4827
    ##  4 06:00:00  Fall            -7.36  6078
    ##  5 07:00:00  Spring          -6.66  5606
    ##  6 08:00:00  Fall            -6.24  7223
    ##  7 06:00:00  Spring          -5.19  6591
    ##  8 07:00:00  Summer          -5.13  5873
    ##  9 05:00:00  Spring          -4.95   462
    ## 10 11:00:00  Fall            -4.90  3962
    ## # … with 66 more rows
…
``` r
# Finding 3 (Distance): It appears that longer flight distances have lower arrival delay compared to shorter flights.
distance = flights %>% filter(!is.na(arr_delay)) %>% mutate(time_hour = substr(as.character(time_hour), 12, 20), length = case_when((distance < 1000) ~ "Short", (distance >= 1000) & (distance < 2000) ~ "Medium", (distance >= 2000) ~ "Long")) %>% group_by(time_hour, length) %>% summarise(mean_arr_delay = mean(arr_delay), n = n()) %>% arrange(mean_arr_delay, decreasing = F)
```

    ## `summarise()` has grouped output by 'time_hour'. You can override using the
    ## `.groups` argument.

``` r
distance
```

    ## # A tibble: 56 × 4
    ## # Groups:   time_hour [19]
    ##    time_hour length mean_arr_delay     n
    ##    <chr>     <chr>           <dbl> <int>
    ##  1 07:00:00  Long           -11.6   4619
    ##  2 06:00:00  Long            -8.59  2589
    ##  3 11:00:00  Long            -6.05  1372
    ##  4 07:00:00  Medium          -5.49  7680
    ##  5 08:00:00  Long            -5.47  3468
    ##  6 05:00:00  Medium          -5.43  1463
    ##  7 12:00:00  Long            -5.05  1970
    ##  8 09:00:00  Long            -5.03  3842
    ##  9 06:00:00  Medium          -4.61  7597
    ## 10 05:00:00  Short           -4.35   406
    ## # … with 46 more rows
…
